{
  "project_info": {
    "project_number": "76497663277",
    "firebase_url": "https://clicker-43a70.firebaseio.com",
    "project_id": "clicker-43a70",
    "storage_bucket": "clicker-43a70.appspot.com"
  },
  "client": [
    {
      "client_info": {
        "mobilesdk_app_id": "1:76497663277:android:106bf25312a921ab21cfa4",
        "android_client_info": {
          "package_name": "com.iqpixel.clickerb"
        }
      },
      "oauth_client": [
        {
          "client_id": "76497663277-2rajgi6guupcmct4kqvu2d150sl8bpnp.apps.googleusercontent.com",
          "client_type": 3
        }
      ],
      "api_key": [
        {
          "current_key": "AIzaSyAiXxickfAlaTgwQaa479S4Uohd3-MedRI"
        }
      ],
      "services": {
        "appinvite_service": {
          "other_platform_oauth_client": [
            {
              "client_id": "76497663277-2rajgi6guupcmct4kqvu2d150sl8bpnp.apps.googleusercontent.com",
              "client_type": 3
            }
          ]
        }
      }
    }
  ],
  "configuration_version": "1"
}